Experiment07/data/ch1round1.csv

ProID,Info,,time,Vol.,
GenTime,2015-01-10 23:01,,0.000000e+00,5.320000e-02,
FileName,ch1round1.csv,,6.400000e-07,4.880000e-02,
Record Length,87500.000000 Points,,1.280000e-06,4.880000e-02,
Sample Interval,6.400000e-07 s,,1.920000e-06,4.880000e-02,
Trigger Time,0.000000e+00 S,,2.560000e-06,5.080000e-02,
Source,CH1,,3.200000e-06,5.000000e-02,
Vertical Units,V/grid,,3.840000e-06,4.880000e-02,
Vertical Scale,2.000000e-02,,4.480000e-06,5.080000e-02,
Vertical Offset,3.000000e+00,,5.120000e-06,4.800000e-02,
Horizontal Units,s/grid,,5.760000e-06,4.880000e-02,
Horizontal Scale,4.000000e-03,,6.400000e-06,5.000000e-02,
Probe Atten,1.000000e+00,,7.040000e-06,5.440000e-02,
,,,7.680000e-06,5.440000e-02,
,,,8.320000e-06,5.000000e-02,
,,,8.960000e-06,4.880000e-02,
,,,9.600000e-06,5.000000e-02,
,,,1.024000e-05,4.880000e-02,
,,,1.088000e-05,5.000000e-02,
,,,1.152000e-05,5.000000e-02,
,,,1.216000e-05,5.000000e-02,
,,,1.280000e-05,4.720000e-02,
,,,1.344000e-05,5.000000e-02,
,,,1.408000e-05,5.440000e-02,
,,,1.472000e-05,5.080000e-02,
,,,1.536000e-05,5.000000e-02,
,,,1.600000e-05,5.080000e-02,
,,,1.664000e-05,5.080000e-02,
,,,1.728000e-05,4.880000e-02,
,,,1.792000e-05,5.000000e-02,
,,,1.856000e-05,5.000000e-02,
,,,1.920000e-05,4.880000e-02,
,,,1.984000e-05,4.800000e-02,
,,,2.048000e-05,5.080000e-02,
,,,2.112000e-05,5.440000e-02,
,,,2.176000e-05,4.880000e-02,
,,,2.240000e-05,7.560000e-02,
,,,2.304000e-05,5.000000e-02,
,,,2.368000e-05,4.880000e-02,
,,,2.432000e-05,4.880000e-02,
,,,2.496000e-05,4.880000e-02,
,,,2.560000e-05,5.080000e-02,
,,,2.624000e-05,5.000000e-02,
,,,2.688000e-05,4.880000e-02,
,,,2.752000e-05,3.840000e-02,
,,,2.816000e-05,5.240000e-02,
,,,2.880000e-05,5.000000e-02,
,,,2.944000e-05,4.720000e-02,
,,,3.008000e-05,5.880000e-02,
,,,3.072000e-05,5.080000e-02,
,,,3.136000e-05,5.000000e-02,
,,,3.200000e-05,4.880000e-02,
,,,3.264000e-05,5.080000e-02,
,,,3.328000e-05,4.280000e-02,
,,,3.392000e-05,5.000000e-02,
,,,3.456000e-05,4.880000e-02,
,,,3.520000e-05,5.320000e-02,
,,,3.584000e-05,5.080000e-02,
,,,3.648000e-05,4.800000e-02,
,,,3.712000e-05,4.880000e-02,
,,,3.776000e-05,4.880000e-02,
,,,3.840000e-05,4.880000e-02,
,,,3.904000e-05,5.000000e-02,
,,,3.968000e-05,5.160000e-02,
,,,4.032000e-05,4.880000e-02,
,,,4.096000e-05,4.880000e-02,
,,,4.160000e-05,4.800000e-02,
,,,4.224000e-05,5.440000e-02,
,,,4.288000e-05,5.080000e-02,
,,,4.352000e-05,4.880000e-02,
,,,4.416000e-05,4.880000e-02,
,,,4.480000e-05,5.000000e-02,
,,,4.544000e-05,5.000000e-02,
,,,4.608000e-05,5.000000e-02,
,,,4.672000e-05,4.800000e-02,
,,,4.736000e-05,5.000000e-02,
,,,4.800000e-05,4.880000e-02,
,,,4.864000e-05,4.880000e-02,
,,,4.928000e-05,5.440000e-02,
,,,4.992000e-05,4.880000e-02,
,,,5.056000e-05,5.320000e-02,
,,,5.120000e-05,4.720000e-02,
,,,5.184000e-05,4.880000e-02,
,,,5.248000e-05,4.880000e-02,
,,,5.312000e-05,4.880000e-02,
,,,5.376000e-05,5.080000e-02,
,,,5.440000e-05,4.880000e-02,
,,,5.504000e-05,4.880000e-02,
,,,5.568000e-05,5.080000e-02,
,,,5.632000e-05,4.640000e-02,
,,,5.696000e-05,4.880000e-02,
,,,5.760000e-05,5.240000e-02,
,,,5.824000e-05,5.080000e-02,
,,,5.888000e-05,4.800000e-02,
,,,5.952000e-05,5.000000e-02,
,,,6.016000e-05,4.800000e-02,
,,,6.080000e-05,5.240000e-02,
,,,6.144000e-05,4.800000e-02,
,,,6.208000e-05,4.880000e-02,
,,,6.272000e-05,4.200000e-02,
,,,6.336000e-05,5.160000e-02,
,,,6.400000e-05,4.800000e-02,
,,,6.464000e-05,4.800000e-02,
,,,6.528000e-05,4.800000e-02,
,,,6.592000e-05,5.080000e-02,
,,,6.656000e-05,5.000000e-02,
,,,6.720000e-05,5.000000e-02,
,,,6.784000e-05,5.000000e-02,
,,,6.848000e-05,4.880000e-02,
,,,6.912000e-05,4.800000e-02,
,,,6.976000e-05,5.000000e-02,
,,,7.040000e-05,5.320000e-02,
,,,7.104000e-05,5.000000e-02,
,,,7.168000e-05,4.880000e-02,
,,,7.232000e-05,5.000000e-02,
,,,7.296000e-05,5.080000e-02,
,,,7.360000e-05,5.000000e-02,
,,,7.424000e-05,5.000000e-02,
,,,7.488000e-05,5.000000e-02,
,,,7.552000e-05,5.000000e-02,
,,,7.616000e-05,4.800000e-02,
,,,7.680000e-05,4.880000e-02,
,,,7.744000e-05,5.440000e-02,
,,,7.808000e-05,4.880000e-02,
,,,7.872000e-05,4.720000e-02,
,,,7.936000e-05,4.880000e-02,
,,,8.000000e-05,5.000000e-02,
,,,8.064000e-05,4.800000e-02,
,,,8.128000e-05,4.880000e-02,
,,,8.192000e-05,5.160000e-02,
,,,8.256000e-05,5.160000e-02,
,,,8.320000e-05,4.720000e-02,
,,,8.384000e-05,5.080000e-02,
,,,8.448000e-05,5.320000e-02,
,,,8.512000e-05,5.000000e-02,
,,,8.576000e-05,4.800000e-02,
,,,8.640000e-05,5.080000e-02,
,,,8.704000e-05,5.080000e-02,
,,,8.768000e-05,5.000000e-02,
,,,8.832000e-05,4.880000e-02,
,,,8.896000e-05,5.080000e-02,
,,,8.960000e-05,4.880000e-02,
,,,9.024000e-05,5.080000e-02,
,,,9.088000e-05,5.000000e-02,
,,,9.152000e-05,7.000000e-02,
,,,9.216000e-05,4.520000e-02,
,,,9.280000e-05,4.800000e-02,
,,,9.344000e-05,5.080000e-02,
,,,9.408000e-05,5.240000e-02,
,,,9.472000e-05,4.880000e-02,
,,,9.536000e-05,4.880000e-02,
,,,9.600000e-05,5.000000e-02,
,,,9.664000e-05,5.080000e-02,
,,,9.728000e-05,4.800000e-02,
,,,9.792000e-05,4.080000e-02,
,,,9.856000e-05,5.080000e-02,
,,,9.920000e-05,5.160000e-02,
,,,9.984000e-05,4.720000e-02,
,,,1.004800e-04,4.880000e-02,
,,,1.011200e-04,4.880000e-02,
,,,1.017600e-04,5.000000e-02,
,,,1.024000e-04,4.880000e-02,
,,,1.030400e-04,1.360000e-02,
,,,1.036800e-04,5.080000e-02,
,,,1.043200e-04,4.880000e-02,
,,,1.049600e-04,5.000000e-02,
,,,1.056000e-04,5.440000e-02,
,,,1.062400e-04,4.880000e-02,
,,,1.068800e-04,4.720000e-02,
,,,1.075200e-04,5.080000e-02,
,,,1.081600e-04,4.880000e-02,
,,,1.088000e-04,4.880000e-02,
,,,1.094400e-04,5.080000e-02,
,,,1.100800e-04,4.880000e-02,
,,,1.107200e-04,4.800000e-02,
,,,1.113600e-04,4.880000e-02,
,,,1.120000e-04,5.000000e-02,
,,,1.126400e-04,5.600000e-02,
,,,1.132800e-04,5.000000e-02,
,,,1.139200e-04,4.800000e-02,
,,,1.145600e-04,5.000000e-02,
,,,1.152000e-04,5.080000e-02,
,,,1.158400e-04,5.000000e-02,
,,,1.164800e-04,5.000000e-02,
,,,1.171200e-04,5.080000e-02,
,,,1.177600e-04,4.880000e-02,
,,,1.184000e-04,4.880000e-02,
,,,1.190400e-04,5.000000e-02,
,,,1.196800e-04,5.440000e-02,
,,,1.203200e-04,5.000000e-02,
,,,1.209600e-04,4.720000e-02,
,,,1.216000e-04,5.000000e-02,
,,,1.222400e-04,5.000000e-02,
,,,1.228800e-04,4.880000e-02,
,,,1.235200e-04,5.000000e-02,
,,,1.241600e-04,5.160000e-02,
,,,1.248000e-04,5.000000e-02,
,,,1.254400e-04,5.080000e-02,
,,,1.260800e-04,5.000000e-02,
,,,1.267200e-04,6.200000e-02,
,,,1.273600e-04,4.520000e-02,
,,,1.280000e-04,4.720000e-02,
,,,1.286400e-04,5.000000e-02,
,,,1.292800e-04,5.000000e-02,
,,,1.299200e-04,4.880000e-02,
,,,1.305600e-04,4.880000e-02,
,,,1.312000e-04,5.080000e-02,
,,,1.318400e-04,5.080000e-02,
,,,1.324800e-04,5.880000e-02,
,,,1.331200e-04,4.800000e-02,
,,,1.337600e-04,5.880000e-02,
,,,1.344000e-04,4.880000e-02,
,,,1.350400e-04,4.720000e-02,
,,,1.356800e-04,4.440000e-02,
,,,1.363200e-04,5.080000e-02,
,,,1.369600e-04,4.880000e-02,
,,,1.376000e-04,4.880000e-02,
,,,1.382400e-04,5.000000e-02,
,,,1.388800e-04,4.880000e-02,
,,,1.395200e-04,4.880000e-02,
,,,1.401600e-04,5.000000e-02,
,,,1.408000e-04,5.440000e-02,
,,,1.414400e-04,5.000000e-02,
,,,1.420800e-04,4.720000e-02,
,,,1.427200e-04,4.880000e-02,
,,,1.433600e-04,5.000000e-02,
,,,1.440000e-04,4.880000e-02,
,,,1.446400e-04,4.800000e-02,
,,,1.452800e-04,5.080000e-02,
,,,1.459200e-04,4.880000e-02,
,,,1.465600e-04,5.080000e-02,
,,,1.472000e-04,4.880000e-02,
,,,1.478400e-04,5.240000e-02,
,,,1.484800e-04,4.880000e-02,
,,,1.491200e-04,5.000000e-02,
,,,1.497600e-04,4.520000e-02,
,,,1.504000e-04,4.800000e-02,
,,,1.510400e-04,4.880000e-02,
,,,1.516800e-04,5.000000e-02,
,,,1.523200e-04,5.080000e-02,
,,,1.529600e-04,4.880000e-02,
,,,1.536000e-04,4.880000e-02,
,,,1.542400e-04,5.000000e-02,
,,,1.548800e-04,5.440000e-02,
,,,1.555200e-04,4.880000e-02,
,,,1.561600e-04,4.640000e-02,
,,,1.568000e-04,4.880000e-02,
,,,1.574400e-04,4.880000e-02,
,,,1.580800e-04,4.880000e-02,
,,,1.587200e-04,5.000000e-02,
,,,1.593600e-04,5.080000e-02,
,,,1.600000e-04,4.880000e-02,
,,,1.606400e-04,4.880000e-02,
,,,1.612800e-04,5.000000e-02,
,,,1.619200e-04,5.440000e-02,
,,,1.625600e-04,4.440000e-02,
,,,1.632000e-04,4.880000e-02,
,,,1.638400e-04,5.080000e-02,
,,,1.644800e-04,4.800000e-02,
,,,1.651200e-04,4.880000e-02,
,,,1.657600e-04,4.800000e-02,
,,,1.664000e-04,4.880000e-02,
,,,1.670400e-04,4.800000e-02,
,,,1.676800e-04,4.800000e-02,
,,,1.683200e-04,3.840000e-02,
,,,1.689600e-04,5.600000e-02,
,,,1.696000e-04,4.880000e-02,
,,,1.702400e-04,4.720000e-02,
,,,1.708800e-04,5.000000e-02,
,,,1.715200e-04,4.880000e-02,
,,,1.721600e-04,5.000000e-02,
,,,1.728000e-04,4.880000e-02,
,,,1.734400e-04,5.080000e-02,
,,,1.740800e-04,4.880000e-02,
,,,1.747200e-04,4.880000e-02,
,,,1.753600e-04,4.880000e-02,
,,,1.760000e-04,5.440000e-02,
,,,1.766400e-04,4.880000e-02,
,,,1.772800e-04,4.720000e-02,
,,,1.779200e-04,4.880000e-02,
,,,1.785600e-04,5.000000e-02,
,,,1.792000e-04,5.000000e-02,
,,,1.798400e-04,4.720000e-02,
,,,1.804800e-04,5.000000e-02,
,,,1.811200e-04,4.880000e-02,
,,,1.817600e-04,4.880000e-02,
,,,1.824000e-04,5.880000e-02,
,,,1.830400e-04,5.440000e-02,
,,,1.836800e-04,4.880000e-02,
,,,1.843200e-04,4.800000e-02,
,,,1.849600e-04,4.720000e-02,
,,,1.856000e-04,4.880000e-02,
,,,1.862400e-04,4.800000e-02,
,,,1.868800e-04,4.880000e-02,
,,,1.875200e-04,5.000000e-02,
,,,1.881600e-04,4.880000e-02,
,,,1.888000e-04,4.800000e-02,
,,,1.894400e-04,4.800000e-02,
,,,1.900800e-04,5.320000e-02,
,,,1.907200e-04,4.880000e-02,
,,,1.913600e-04,4.520000e-02,
,,,1.920000e-04,5.000000e-02,
,,,1.926400e-04,4.880000e-02,
,,,1.932800e-04,4.800000e-02,
,,,1.939200e-04,4.720000e-02,
,,,1.945600e-04,5.000000e-02,
,,,1.952000e-04,4.880000e-02,
,,,1.958400e-04,5.160000e-02,
,,,1.964800e-04,4.880000e-02,
,,,1.971200e-04,5.320000e-02,
,,,1.977600e-04,4.080000e-02,
,,,1.984000e-04,4.440000e-02,
,,,1.990400e-04,4.880000e-02,
,,,1.996800e-04,5.160000e-02,
,,,2.003200e-04,4.880000e-02,
,,,2.009600e-04,4.880000e-02,
,,,2.016000e-04,5.080000e-02,
,,,2.022400e-04,4.360000e-02,
,,,2.028800e-04,5.000000e-02,
,,,2.035200e-04,5.000000e-02,
,,,2.041600e-04,6.200000e-02,
,,,2.048000e-04,5.080000e-02,
,,,2.054400e-04,5.760000e-02,
,,,2.060800e-04,4.800000e-02,
,,,2.067200e-04,5.000000e-02,
,,,2.073600e-04,5.440000e-02,
,,,2.080000e-04,4.800000e-02,
,,,2.086400e-04,5.000000e-02,
,,,2.092800e-04,4.800000e-02,
,,,2.099200e-04,5.000000e-02,
,,,2.105600e-04,5.000000e-02,
,,,2.112000e-04,5.440000e-02,
,,,2.118400e-04,5.000000e-02,
,,,2.124800e-04,4.720000e-02,
,,,2.131200e-04,5.000000e-02,
,,,2.137600e-04,4.800000e-02,
,,,2.144000e-04,4.880000e-02,
,,,2.150400e-04,4.800000e-02,
,,,2.156800e-04,4.880000e-02,
,,,2.163200e-04,5.000000e-02,
,,,2.169600e-04,4.880000e-02,
,,,2.176000e-04,4.800000e-02,
,,,2.182400e-04,5.440000e-02,
,,,2.188800e-04,4.880000e-02,
,,,2.195200e-04,4.720000e-02,
,,,2.201600e-04,4.880000e-02,
,,,2.208000e-04,5.000000e-02,
,,,2.214400e-04,4.800000e-02,
,,,2.220800e-04,4.800000e-02,
,,,2.227200e-04,4.880000e-02,
,,,2.233600e-04,4.800000e-02,
,,,2.240000e-04,5.000000e-02,
,,,2.246400e-04,4.880000e-02,
,,,2.252800e-04,5.240000e-02,
,,,2.259200e-04,4.800000e-02,
,,,2.265600e-04,4.520000e-02,
,,,2.272000e-04,4.800000e-02,
,,,2.278400e-04,4.880000e-02,
,,,2.284800e-04,4.880000e-02,
,,,2.291200e-04,4.880000e-02,
,,,2.297600e-04,5.000000e-02,
,,,2.304000e-04,4.800000e-02,
,,,2.310400e-04,4.880000e-02,
,,,2.316800e-04,4.880000e-02,
,,,2.323200e-04,5.240000e-02,
,,,2.329600e-04,5.000000e-02,
,,,2.336000e-04,4.520000e-02,
,,,2.342400e-04,5.000000e-02,
,,,2.348800e-04,4.720000e-02,
,,,2.355200e-04,4.880000e-02,
,,,2.361600e-04,4.880000e-02,
,,,2.368000e-04,4.880000e-02,
,,,2.374400e-04,4.880000e-02,
,,,2.380800e-04,4.880000e-02,
,,,2.387200e-04,4.800000e-02,
,,,2.393600e-04,5.600000e-02,
,,,2.400000e-04,5.080000e-02,
,,,2.406400e-04,4.640000e-02,
,,,2.412800e-04,4.880000e-02,
,,,2.419200e-04,4.880000e-02,
,,,2.425600e-04,4.800000e-02,
,,,2.432000e-04,4.880000e-02,
,,,2.438400e-04,5.000000e-02,
,,,2.444800e-04,4.880000e-02,
,,,2.451200e-04,4.880000e-02,
,,,2.457600e-04,4.880000e-02,
,,,2.464000e-04,5.320000e-02,
,,,2.470400e-04,4.800000e-02,
,,,2.476800e-04,4.640000e-02,
,,,2.483200e-04,4.800000e-02,
,,,2.489600e-04,4.880000e-02,
,,,2.496000e-04,4.720000e-02,
,,,2.502400e-04,4.800000e-02,
,,,2.508800e-04,4.880000e-02,
,,,2.515200e-04,4.880000e-02,
,,,2.521600e-04,4.880000e-02,
,,,2.528000e-04,4.520000e-02,
,,,2.534400e-04,5.240000e-02,
,,,2.540800e-04,4.800000e-02,
,,,2.547200e-04,4.640000e-02,
,,,2.553600e-04,4.880000e-02,
,,,2.560000e-04,4.720000e-02,
,,,2.566400e-04,4.800000e-02,
,,,2.572800e-04,4.880000e-02,
,,,2.579200e-04,4.880000e-02,
,,,2.585600e-04,4.800000e-02,
,,,2.592000e-04,4.800000e-02,
,,,2.598400e-04,4.800000e-02,
,,,2.604800e-04,5.000000e-02,
,,,2.611200e-04,4.800000e-02,
,,,2.617600e-04,4.520000e-02,
,,,2.624000e-04,4.880000e-02,
,,,2.630400e-04,4.880000e-02,
,,,2.636800e-04,4.800000e-02,
,,,2.643200e-04,4.800000e-02,
,,,2.649600e-04,1.108000e-01,
,,,2.656000e-04,4.880000e-02,
,,,2.662400e-04,4.800000e-02,
,,,2.668800e-04,4.800000e-02,
,,,2.675200e-04,5.240000e-02,
,,,2.681600e-04,2.680000e-02,
,,,2.688000e-04,4.520000e-02,
,,,2.694400e-04,4.800000e-02,
,,,2.700800e-04,4.880000e-02,
,,,2.707200e-04,4.800000e-02,
,,,2.713600e-04,4.880000e-02,
,,,2.720000e-04,4.800000e-02,
,,,2.726400e-04,4.800000e-02,
,,,2.732800e-04,4.880000e-02,
,,,2.739200e-04,4.880000e-02,
,,,2.745600e-04,5.440000e-02,
,,,2.752000e-04,5.080000e-02,
,,,2.758400e-04,4.800000e-02,
,,,2.764800e-04,5.000000e-02,
,,,2.771200e-04,4.800000e-02,
,,,2.777600e-04,4.800000e-02,
,,,2.784000e-04,4.800000e-02,
,,,2.790400e-04,4.880000e-02,
,,,2.796800e-04,4.800000e-02,
,,,2.803200e-04,4.800000e-02,
,,,2.809600e-04,4.880000e-02,
,,,2.816000e-04,5.160000e-02,
,,,2.822400e-04,4.720000e-02,
,,,2.828800e-04,4.520000e-02,
,,,2.835200e-04,4.800000e-02,
,,,2.841600e-04,4.800000e-02,
,,,2.848000e-04,4.880000e-02,
,,,2.854400e-04,4.720000e-02,
,,,2.860800e-04,4.880000e-02,
,,,2.867200e-04,4.720000e-02,
,,,2.873600e-04,4.720000e-02,
,,,2.880000e-04,4.720000e-02,
,,,2.886400e-04,5.240000e-02,
,,,2.892800e-04,4.800000e-02,
,,,2.899200e-04,4.520000e-02,
,,,2.905600e-04,5.000000e-02,
,,,2.912000e-04,4.800000e-02,
,,,2.918400e-04,4.720000e-02,
,,,2.924800e-04,4.880000e-02,
,,,2.931200e-04,5.000000e-02,
,,,2.937600e-04,4.800000e-02,
,,,2.944000e-04,4.880000e-02,
,,,2.950400e-04,4.800000e-02,
,,,2.956800e-04,5.320000e-02,
,,,2.963200e-04,4.720000e-02,
,,,2.969600e-04,4.640000e-02,
,,,2.976000e-04,4.640000e-02,
,,,2.982400e-04,4.800000e-02,
,,,2.988800e-04,4.720000e-02,
,,,2.995200e-04,4.880000e-02,
,,,3.001600e-04,4.800000e-02,
,,,3.008000e-04,4.880000e-02,
,,,3.014400e-04,4.800000e-02,
,,,3.020800e-04,4.800000e-02,
,,,3.027200e-04,5.080000e-02,
,,,3.033600e-04,4.720000e-02,
,,,3.040000e-04,4.880000e-02,
,,,3.046400e-04,4.880000e-02,
,,,3.052800e-04,4.800000e-02,
,,,3.059200e-04,4.800000e-02,
,,,3.065600e-04,4.720000e-02,
,,,3.072000e-04,4.880000e-02,
,,,3.078400e-04,5.320000e-02,
,,,3.084800e-04,4.720000e-02,
,,,3.091200e-04,4.800000e-02,
,,,3.097600e-04,5.440000e-02,
,,,3.104000e-04,4.640000e-02,
,,,3.110400e-04,4.640000e-02,
,,,3.116800e-04,4.800000e-02,
,,,3.123200e-04,4.800000e-02,
,,,3.129600e-04,4.720000e-02,
,,,3.136000e-04,4.640000e-02,
,,,3.142400e-04,4.880000e-02,
,,,3.148800e-04,4.800000e-02,
,,,3.155200e-04,4.800000e-02,
,,,3.161600e-04,4.720000e-02,
,,,3.168000e-04,5.160000e-02,
,,,3.174400e-04,4.720000e-02,
,,,3.180800e-04,4.440000e-02,
,,,3.187200e-04,4.800000e-02,
,,,3.193600e-04,4.800000e-02,
,,,3.200000e-04,4.720000e-02,
,,,3.206400e-04,4.720000e-02,
,,,3.212800e-04,4.880000e-02,
,,,3.219200e-04,4.800000e-02,
,,,3.225600e-04,4.720000e-02,
,,,3.232000e-04,4.800000e-02,
,,,3.238400e-04,5.240000e-02,
,,,3.244800e-04,4.720000e-02,
,,,3.251200e-04,4.360000e-02,
,,,3.257600e-04,4.800000e-02,
,,,3.264000e-04,4.640000e-02,
,,,3.270400e-04,4.720000e-02,
,,,3.276800e-04,4.720000e-02,
,,,3.283200e-04,4.800000e-02,
,,,3.289600e-04,4.720000e-02,
,,,3.296000e-04,4.880000e-02,
,,,3.302400e-04,4.800000e-02,
,,,3.308800e-04,5.240000e-02,
,,,3.315200e-04,4.640000e-02,
,,,3.321600e-04,4.520000e-02,
,,,3.328000e-04,4.800000e-02,
,,,3.334400e-04,4.720000e-02,
,,,3.340800e-04,4.720000e-02,
,,,3.347200e-04,4.800000e-02,
,,,3.353600e-04,4.800000e-02,
,,,3.360000e-04,4.800000e-02,
,,,3.366400e-04,4.880000e-02,
,,,3.372800e-04,4.720000e-02,
,,,3.379200e-04,5.160000e-02,
,,,3.385600e-04,4.800000e-02,
,,,3.392000e-04,4.640000e-02,
,,,3.398400e-04,4.720000e-02,
,,,3.404800e-04,4.720000e-02,
,,,3.411200e-04,4.800000e-02,
,,,3.417600e-04,4.640000e-02,
,,,3.424000e-04,4.800000e-02,
,,,3.430400e-04,4.720000e-02,
,,,3.436800e-04,4.880000e-02,
,,,3.443200e-04,4.800000e-02,
,,,3.449600e-04,5.320000e-02,
,,,3.456000e-04,5.600000e-02,
,,,3.462400e-04,4.520000e-02,
,,,3.468800e-04,4.720000e-02,
,,,3.475200e-04,4.720000e-02,
,,,3.481600e-04,4.720000e-02,
,,,3.488000e-04,4.720000e-02,
,,,3.494400e-04,4.800000e-02,
,,,3.500800e-04,4.800000e-02,
,,,3.507200e-04,4.800000e-02,
,,,3.513600e-04,4.800000e-02,
,,,3.520000e-04,5.080000e-02,
,,,3.526400e-04,4.640000e-02,
,,,3.532800e-04,4.360000e-02,
,,,3.539200e-04,4.640000e-02,
,,,3.545600e-04,4.720000e-02,
,,,3.552000e-04,4.720000e-02,
,,,3.558400e-04,4.640000e-02,
,,,3.564800e-04,4.720000e-02,
,,,3.571200e-04,4.800000e-02,
,,,3.577600e-04,4.800000e-02,
,,,3.584000e-04,4.520000e-02,
,,,3.590400e-04,5.080000e-02,
,,,3.596800e-04,4.720000e-02,
,,,3.603200e-04,4.200000e-02,
,,,3.609600e-04,4.800000e-02,
,,,3.616000e-04,4.640000e-02,
,,,3.622400e-04,4.720000e-02,
,,,3.628800e-04,4.720000e-02,
,,,3.635200e-04,4.880000e-02,
,,,3.641600e-04,4.800000e-02,
,,,3.648000e-04,4.880000e-02,
,,,3.654400e-04,4.720000e-02,
,,,3.660800e-04,5.080000e-02,
,,,3.667200e-04,4.640000e-02,
,,,3.673600e-04,4.440000e-02,
,,,3.680000e-04,4.640000e-02,
,,,3.686400e-04,4.720000e-02,
,,,3.692800e-04,4.800000e-02,
,,,3.699200e-04,4.640000e-02,
,,,3.705600e-04,4.720000e-02,
,,,3.712000e-04,4.520000e-02,
,,,3.718400e-04,4.720000e-02,
,,,3.724800e-04,4.720000e-02,
,,,3.731200e-04,5.080000e-02,
,,,3.737600e-04,4.640000e-02,
,,,3.744000e-04,3.480000e-02,
,,,3.750400e-04,4.720000e-02,
,,,3.756800e-04,4.720000e-02,
,,,3.763200e-04,4.720000e-02,
,,,3.769600e-04,4.720000e-02,
,,,3.776000e-04,4.720000e-02,
,,,3.782400e-04,4.640000e-02,
,,,3.788800e-04,4.800000e-02,
,,,3.795200e-04,4.720000e-02,
,,,3.801600e-04,5.080000e-02,
,,,3.808000e-04,6.640000e-02,
,,,3.814400e-04,4.720000e-02,
,,,3.820800e-04,4.720000e-02,
,,,3.827200e-04,4.720000e-02,
,,,3.833600e-04,4.640000e-02,
,,,3.840000e-04,4.720000e-02,
,,,3.846400e-04,4.800000e-02,
,,,3.852800e-04,4.720000e-02,
,,,3.859200e-04,4.720000e-02,
,,,3.865600e-04,4.720000e-02,
,,,3.872000e-04,5.000000e-02,
,,,3.878400e-04,4.720000e-02,
,,,3.884800e-04,4.360000e-02,
,,,3.891200e-04,4.720000e-02,
,,,3.897600e-04,4.640000e-02,
,,,3.904000e-04,4.640000e-02,
,,,3.910400e-04,4.640000e-02,
,,,3.916800e-04,4.800000e-02,
,,,3.923200e-04,4.200000e-02,
,,,3.929600e-04,4.720000e-02,
,,,3.936000e-04,4.640000e-02,
,,,3.942400e-04,5.080000e-02,
,,,3.948800e-04,4.640000e-02,
,,,3.955200e-04,4.360000e-02,
,,,3.961600e-04,4.640000e-02,
,,,3.968000e-04,4.720000e-02,
,,,3.974400e-04,4.640000e-02,
,,,3.980800e-04,4.800000e-02,
,,,3.987200e-04,4.720000e-02,
,,,3.993600e-04,4.720000e-02,
,,,4.000000e-04,4.800000e-02,
,,,4.006400e-04,4.720000e-02,
,,,4.012800e-04,5.240000e-02,
,,,4.019200e-04,4.720000e-02,
,,,4.025600e-04,4.000000e-02,
,,,4.032000e-04,4.720000e-02,
,,,4.038400e-04,4.640000e-02,
,,,4.044800e-04,4.720000e-02,
,,,4.051200e-04,4.800000e-02,
,,,4.057600e-04,5.080000e-02,
,,,4.064000e-04,4.440000e-02,
,,,4.070400e-04,4.720000e-02,
,,,4.076800e-04,4.720000e-02,
,,,4.083200e-04,5.000000e-02,
,,,4.089600e-04,4.520000e-02,
,,,4.096000e-04,4.880000e-02,
,,,4.102400e-04,4.720000e-02,
,,,4.108800e-04,4.720000e-02,
,,,4.115200e-04,4.640000e-02,
,,,4.121600e-04,3.400000e-02,
,,,4.128000e-04,4.360000e-02,
,,,4.134400e-04,4.640000e-02,
,,,4.140800e-04,4.800000e-02,
,,,4.147200e-04,4.800000e-02,
,,,4.153600e-04,5.000000e-02,
,,,4.160000e-04,4.640000e-02,
,,,4.166400e-04,4.360000e-02,
,,,4.172800e-04,4.720000e-02,
,,,4.179200e-04,4.800000e-02,
,,,4.185600e-04,4.640000e-02,
,,,4.192000e-04,4.520000e-02,
