radio/data/amplifier/13amch2.csv

ProID,Info,,time,Vol.,
GenTime,2014-04-21 10:05,,0.000000e+00,-2.020000e+00,
FileName,13amch2.csv,,3.200000e-08,-2.020000e+00,
Record Length,87500.000000 Points,,6.400000e-08,-2.020000e+00,
Sample Interval,3.200000e-08 s,,9.600000e-08,-2.020000e+00,
Trigger Time,0.000000e+00 S,,1.280000e-07,-2.020000e+00,
Source,CH2,,1.600000e-07,-2.020000e+00,
Vertical Units,V/grid,,1.920000e-07,-2.020000e+00,
Vertical Scale,1.000000e+00,,2.240000e-07,-2.020000e+00,
Vertical Offset,7.000000e+00,,2.560000e-07,-2.020000e+00,
Horizontal Units,s/grid,,2.880000e-07,-2.020000e+00,
Horizontal Scale,2.000000e-04,,3.200000e-07,-2.020000e+00,
Probe Atten,1.000000e+00,,3.520000e-07,-2.020000e+00,
,,,3.840000e-07,-2.020000e+00,
,,,4.160000e-07,-2.020000e+00,
,,,4.480000e-07,-2.020000e+00,
,,,4.800000e-07,-2.020000e+00,
,,,5.120000e-07,-2.020000e+00,
,,,5.440000e-07,-2.020000e+00,
,,,5.760000e-07,-2.020000e+00,
,,,6.080000e-07,-2.020000e+00,
,,,6.400000e-07,-2.020000e+00,
,,,6.720000e-07,-2.020000e+00,
,,,7.040000e-07,-2.020000e+00,
,,,7.360000e-07,-2.020000e+00,
,,,7.680000e-07,-2.020000e+00,
,,,8.000000e-07,-2.020000e+00,
,,,8.320000e-07,-2.020000e+00,
,,,8.640000e-07,-2.020000e+00,
,,,8.960000e-07,-2.020000e+00,
,,,9.280000e-07,-2.020000e+00,
,,,9.600000e-07,-2.020000e+00,
,,,9.920000e-07,-2.020000e+00,
,,,1.024000e-06,-2.020000e+00,
,,,1.056000e-06,-2.020000e+00,
,,,1.088000e-06,-2.020000e+00,
,,,1.120000e-06,-2.020000e+00,
,,,1.152000e-06,-2.020000e+00,
,,,1.184000e-06,-2.020000e+00,
,,,1.216000e-06,-2.020000e+00,
,,,1.248000e-06,-2.020000e+00,
,,,1.280000e-06,-2.020000e+00,
,,,1.312000e-06,-2.020000e+00,
,,,1.344000e-06,-2.020000e+00,
,,,1.376000e-06,-2.020000e+00,
,,,1.408000e-06,-2.020000e+00,
,,,1.440000e-06,-2.020000e+00,
,,,1.472000e-06,-2.020000e+00,
,,,1.504000e-06,-2.020000e+00,
,,,1.536000e-06,-2.020000e+00,
,,,1.568000e-06,-2.020000e+00,
,,,1.600000e-06,-2.020000e+00,
,,,1.632000e-06,-2.020000e+00,
,,,1.664000e-06,-2.020000e+00,
,,,1.696000e-06,-2.020000e+00,
,,,1.728000e-06,-2.020000e+00,
,,,1.760000e-06,-2.020000e+00,
,,,1.792000e-06,-2.020000e+00,
,,,1.824000e-06,-2.020000e+00,
,,,1.856000e-06,-2.020000e+00,
,,,1.888000e-06,-2.020000e+00,
,,,1.920000e-06,-2.020000e+00,
,,,1.952000e-06,-2.020000e+00,
,,,1.984000e-06,-2.020000e+00,
,,,2.016000e-06,-2.020000e+00,
,,,2.048000e-06,-2.020000e+00,
,,,2.080000e-06,-2.020000e+00,
,,,2.112000e-06,-2.020000e+00,
,,,2.144000e-06,-2.060000e+00,
,,,2.176000e-06,-2.060000e+00,
,,,2.208000e-06,-2.020000e+00,
,,,2.240000e-06,-2.020000e+00,
,,,2.272000e-06,-2.020000e+00,
,,,2.304000e-06,-2.020000e+00,
,,,2.336000e-06,-2.020000e+00,
,,,2.368000e-06,-2.020000e+00,
,,,2.400000e-06,-2.020000e+00,
,,,2.432000e-06,-2.020000e+00,
,,,2.464000e-06,-2.060000e+00,
,,,2.496000e-06,-2.020000e+00,
,,,2.528000e-06,-2.060000e+00,
,,,2.560000e-06,-2.020000e+00,
,,,2.592000e-06,-2.020000e+00,
,,,2.624000e-06,-2.020000e+00,
,,,2.656000e-06,-2.020000e+00,
,,,2.688000e-06,-2.060000e+00,
,,,2.720000e-06,-2.060000e+00,
,,,2.752000e-06,-2.020000e+00,
,,,2.784000e-06,-2.060000e+00,
,,,2.816000e-06,-2.060000e+00,
,,,2.848000e-06,-2.060000e+00,
,,,2.880000e-06,-2.020000e+00,
,,,2.912000e-06,-2.060000e+00,
,,,2.944000e-06,-2.060000e+00,
,,,2.976000e-06,-2.060000e+00,
,,,3.008000e-06,-2.020000e+00,
,,,3.040000e-06,-2.060000e+00,
,,,3.072000e-06,-2.060000e+00,
,,,3.104000e-06,-2.060000e+00,
,,,3.136000e-06,-2.060000e+00,
,,,3.168000e-06,-2.060000e+00,
,,,3.200000e-06,-2.060000e+00,
,,,3.232000e-06,-2.060000e+00,
,,,3.264000e-06,-2.060000e+00,
,,,3.296000e-06,-2.060000e+00,
,,,3.328000e-06,-2.060000e+00,
,,,3.360000e-06,-2.060000e+00,
,,,3.392000e-06,-2.060000e+00,
,,,3.424000e-06,-2.060000e+00,
,,,3.456000e-06,-2.060000e+00,
,,,3.488000e-06,-2.060000e+00,
,,,3.520000e-06,-2.060000e+00,
,,,3.552000e-06,-2.060000e+00,
,,,3.584000e-06,-2.060000e+00,
,,,3.616000e-06,-2.060000e+00,
,,,3.648000e-06,-2.060000e+00,
,,,3.680000e-06,-2.060000e+00,
,,,3.712000e-06,-2.060000e+00,
,,,3.744000e-06,-2.060000e+00,
,,,3.776000e-06,-2.060000e+00,
,,,3.808000e-06,-2.060000e+00,
,,,3.840000e-06,-2.060000e+00,
,,,3.872000e-06,-2.060000e+00,
,,,3.904000e-06,-2.060000e+00,
,,,3.936000e-06,-2.060000e+00,
,,,3.968000e-06,-2.060000e+00,
,,,4.000000e-06,-2.060000e+00,
,,,4.032000e-06,-2.060000e+00,
,,,4.064000e-06,-2.060000e+00,
,,,4.096000e-06,-2.060000e+00,
,,,4.128000e-06,-2.060000e+00,
,,,4.160000e-06,-2.060000e+00,
,,,4.192000e-06,-2.060000e+00,
,,,4.224000e-06,-2.060000e+00,
,,,4.256000e-06,-2.060000e+00,
,,,4.288000e-06,-2.060000e+00,
,,,4.320000e-06,-2.060000e+00,
,,,4.352000e-06,-2.060000e+00,
,,,4.384000e-06,-2.060000e+00,
,,,4.416000e-06,-2.060000e+00,
,,,4.448000e-06,-2.060000e+00,
,,,4.480000e-06,-2.060000e+00,
,,,4.512000e-06,-2.060000e+00,
,,,4.544000e-06,-2.060000e+00,
,,,4.576000e-06,-2.060000e+00,
,,,4.608000e-06,-2.060000e+00,
,,,4.640000e-06,-2.060000e+00,
,,,4.672000e-06,-2.060000e+00,
,,,4.704000e-06,-2.100000e+00,
,,,4.736000e-06,-2.060000e+00,
,,,4.768000e-06,-2.060000e+00,
,,,4.800000e-06,-2.060000e+00,
,,,4.832000e-06,-2.060000e+00,
,,,4.864000e-06,-2.060000e+00,
,,,4.896000e-06,-2.060000e+00,
,,,4.928000e-06,-2.060000e+00,
,,,4.960000e-06,-2.060000e+00,
,,,4.992000e-06,-2.100000e+00,
,,,5.024000e-06,-2.060000e+00,
,,,5.056000e-06,-2.060000e+00,
,,,5.088000e-06,-2.060000e+00,
,,,5.120000e-06,-2.060000e+00,
,,,5.152000e-06,-2.100000e+00,
,,,5.184000e-06,-2.060000e+00,
,,,5.216000e-06,-2.060000e+00,
,,,5.248000e-06,-2.060000e+00,
,,,5.280000e-06,-2.060000e+00,
,,,5.312000e-06,-2.100000e+00,
,,,5.344000e-06,-2.100000e+00,
,,,5.376000e-06,-2.060000e+00,
,,,5.408000e-06,-2.100000e+00,
,,,5.440000e-06,-2.060000e+00,
,,,5.472000e-06,-2.100000e+00,
,,,5.504000e-06,-2.060000e+00,
,,,5.536000e-06,-2.060000e+00,
,,,5.568000e-06,-2.100000e+00,
,,,5.600000e-06,-2.100000e+00,
,,,5.632000e-06,-2.100000e+00,
,,,5.664000e-06,-2.100000e+00,
,,,5.696000e-06,-2.100000e+00,
,,,5.728000e-06,-2.100000e+00,
,,,5.760000e-06,-2.060000e+00,
,,,5.792000e-06,-2.100000e+00,
,,,5.824000e-06,-2.060000e+00,
,,,5.856000e-06,-2.100000e+00,
,,,5.888000e-06,-2.100000e+00,
,,,5.920000e-06,-2.100000e+00,
,,,5.952000e-06,-2.100000e+00,
,,,5.984000e-06,-2.100000e+00,
,,,6.016000e-06,-2.100000e+00,
,,,6.048000e-06,-2.100000e+00,
,,,6.080000e-06,-2.060000e+00,
,,,6.112000e-06,-2.100000e+00,
,,,6.144000e-06,-2.100000e+00,
,,,6.176000e-06,-2.100000e+00,
,,,6.208000e-06,-2.100000e+00,
,,,6.240000e-06,-2.100000e+00,
,,,6.272000e-06,-2.100000e+00,
,,,6.304000e-06,-2.100000e+00,
,,,6.336000e-06,-2.100000e+00,
,,,6.368000e-06,-2.100000e+00,
,,,6.400000e-06,-2.100000e+00,
,,,6.432000e-06,-2.100000e+00,
,,,6.464000e-06,-2.100000e+00,
,,,6.496000e-06,-2.100000e+00,
,,,6.528000e-06,-2.100000e+00,
,,,6.560000e-06,-2.100000e+00,
,,,6.592000e-06,-2.100000e+00,
,,,6.624000e-06,-2.100000e+00,
,,,6.656000e-06,-2.100000e+00,
,,,6.688000e-06,-2.100000e+00,
,,,6.720000e-06,-2.100000e+00,
,,,6.752000e-06,-2.100000e+00,
,,,6.784000e-06,-2.100000e+00,
,,,6.816000e-06,-2.100000e+00,
,,,6.848000e-06,-2.100000e+00,
,,,6.880000e-06,-2.100000e+00,
,,,6.912000e-06,-2.100000e+00,
,,,6.944000e-06,-2.100000e+00,
,,,6.976000e-06,-2.100000e+00,
,,,7.008000e-06,-2.100000e+00,
,,,7.040000e-06,-2.100000e+00,
,,,7.072000e-06,-2.100000e+00,
,,,7.104000e-06,-2.100000e+00,
,,,7.136000e-06,-2.100000e+00,
,,,7.168000e-06,-2.100000e+00,
,,,7.200000e-06,-2.100000e+00,
,,,7.232000e-06,-2.100000e+00,
,,,7.264000e-06,-2.100000e+00,
,,,7.296000e-06,-2.100000e+00,
,,,7.328000e-06,-2.100000e+00,
,,,7.360000e-06,-2.100000e+00,
,,,7.392000e-06,-2.100000e+00,
,,,7.424000e-06,-2.100000e+00,
,,,7.456000e-06,-2.100000e+00,
,,,7.488000e-06,-2.100000e+00,
,,,7.520000e-06,-2.100000e+00,
,,,7.552000e-06,-2.100000e+00,
,,,7.584000e-06,-2.140000e+00,
,,,7.616000e-06,-2.100000e+00,
,,,7.648000e-06,-2.100000e+00,
,,,7.680000e-06,-2.100000e+00,
,,,7.712000e-06,-2.100000e+00,
,,,7.744000e-06,-2.100000e+00,
,,,7.776000e-06,-2.100000e+00,
,,,7.808000e-06,-2.100000e+00,
,,,7.840000e-06,-2.100000e+00,
,,,7.872000e-06,-2.100000e+00,
,,,7.904000e-06,-2.100000e+00,
,,,7.936000e-06,-2.140000e+00,
,,,7.968000e-06,-2.100000e+00,
,,,8.000000e-06,-2.140000e+00,
,,,8.032000e-06,-2.100000e+00,
,,,8.064000e-06,-2.100000e+00,
,,,8.096000e-06,-2.140000e+00,
,,,8.128000e-06,-2.100000e+00,
,,,8.160000e-06,-2.100000e+00,
,,,8.192000e-06,-2.100000e+00,
,,,8.224000e-06,-2.100000e+00,
,,,8.256000e-06,-2.140000e+00,
,,,8.288000e-06,-2.140000e+00,
,,,8.320000e-06,-2.100000e+00,
,,,8.352000e-06,-2.140000e+00,
,,,8.384000e-06,-2.100000e+00,
,,,8.416000e-06,-2.100000e+00,
,,,8.448000e-06,-2.140000e+00,
,,,8.480000e-06,-2.100000e+00,
,,,8.512000e-06,-2.140000e+00,
,,,8.544000e-06,-2.140000e+00,
,,,8.576000e-06,-2.140000e+00,
,,,8.608000e-06,-2.100000e+00,
,,,8.640000e-06,-2.140000e+00,
,,,8.672000e-06,-2.100000e+00,
,,,8.704000e-06,-2.140000e+00,
,,,8.736000e-06,-2.140000e+00,
,,,8.768000e-06,-2.140000e+00,
,,,8.800000e-06,-2.100000e+00,
,,,8.832000e-06,-2.140000e+00,
,,,8.864000e-06,-2.140000e+00,
,,,8.896000e-06,-2.140000e+00,
,,,8.928000e-06,-2.140000e+00,
,,,8.960000e-06,-2.140000e+00,
,,,8.992000e-06,-2.140000e+00,
,,,9.024000e-06,-2.140000e+00,
,,,9.056000e-06,-2.140000e+00,
,,,9.088000e-06,-2.140000e+00,
,,,9.120000e-06,-2.140000e+00,
,,,9.152000e-06,-2.140000e+00,
,,,9.184000e-06,-2.140000e+00,
,,,9.216000e-06,-2.140000e+00,
,,,9.248000e-06,-2.140000e+00,
,,,9.280000e-06,-2.140000e+00,
,,,9.312000e-06,-2.140000e+00,
,,,9.344000e-06,-2.140000e+00,
,,,9.376000e-06,-2.140000e+00,
,,,9.408000e-06,-2.140000e+00,
,,,9.440000e-06,-2.140000e+00,
,,,9.472000e-06,-2.140000e+00,
,,,9.504000e-06,-2.140000e+00,
,,,9.536000e-06,-2.140000e+00,
,,,9.568000e-06,-2.140000e+00,
,,,9.600000e-06,-2.140000e+00,
,,,9.632000e-06,-2.140000e+00,
,,,9.664000e-06,-2.140000e+00,
,,,9.696000e-06,-2.140000e+00,
,,,9.728000e-06,-2.140000e+00,
,,,9.760000e-06,-2.140000e+00,
,,,9.792000e-06,-2.140000e+00,
,,,9.824000e-06,-2.140000e+00,
,,,9.856000e-06,-2.140000e+00,
,,,9.888000e-06,-2.140000e+00,
,,,9.920000e-06,-2.140000e+00,
,,,9.952000e-06,-2.140000e+00,
,,,9.984000e-06,-2.140000e+00,
,,,1.001600e-05,-2.140000e+00,
,,,1.004800e-05,-2.140000e+00,
,,,1.008000e-05,-2.140000e+00,
,,,1.011200e-05,-2.140000e+00,
,,,1.014400e-05,-2.140000e+00,
,,,1.017600e-05,-2.140000e+00,
,,,1.020800e-05,-2.140000e+00,
,,,1.024000e-05,-2.140000e+00,
,,,1.027200e-05,-2.140000e+00,
,,,1.030400e-05,-2.140000e+00,
,,,1.033600e-05,-2.140000e+00,
,,,1.036800e-05,-2.140000e+00,
,,,1.040000e-05,-2.140000e+00,
,,,1.043200e-05,-2.140000e+00,
,,,1.046400e-05,-2.140000e+00,
,,,1.049600e-05,-2.140000e+00,
,,,1.052800e-05,-2.140000e+00,
,,,1.056000e-05,-2.140000e+00,
,,,1.059200e-05,-2.140000e+00,
,,,1.062400e-05,-2.140000e+00,
,,,1.065600e-05,-2.140000e+00,
,,,1.068800e-05,-2.140000e+00,
,,,1.072000e-05,-2.140000e+00,
,,,1.075200e-05,-2.140000e+00,
,,,1.078400e-05,-2.180000e+00,
,,,1.081600e-05,-2.140000e+00,
,,,1.084800e-05,-2.140000e+00,
,,,1.088000e-05,-2.180000e+00,
,,,1.091200e-05,-2.140000e+00,
,,,1.094400e-05,-2.180000e+00,
,,,1.097600e-05,-2.140000e+00,
,,,1.100800e-05,-2.140000e+00,
,,,1.104000e-05,-2.140000e+00,
,,,1.107200e-05,-2.140000e+00,
,,,1.110400e-05,-2.140000e+00,
,,,1.113600e-05,-2.140000e+00,
,,,1.116800e-05,-2.140000e+00,
,,,1.120000e-05,-2.140000e+00,
,,,1.123200e-05,-2.180000e+00,
,,,1.126400e-05,-2.180000e+00,
,,,1.129600e-05,-2.180000e+00,
,,,1.132800e-05,-2.180000e+00,
,,,1.136000e-05,-2.140000e+00,
,,,1.139200e-05,-2.180000e+00,
,,,1.142400e-05,-2.140000e+00,
,,,1.145600e-05,-2.180000e+00,
,,,1.148800e-05,-2.140000e+00,
,,,1.152000e-05,-2.180000e+00,
,,,1.155200e-05,-2.180000e+00,
,,,1.158400e-05,-2.180000e+00,
,,,1.161600e-05,-2.180000e+00,
,,,1.164800e-05,-2.180000e+00,
,,,1.168000e-05,-2.180000e+00,
,,,1.171200e-05,-2.180000e+00,
,,,1.174400e-05,-2.180000e+00,
,,,1.177600e-05,-2.180000e+00,
,,,1.180800e-05,-2.180000e+00,
,,,1.184000e-05,-2.180000e+00,
,,,1.187200e-05,-2.180000e+00,
,,,1.190400e-05,-2.180000e+00,
,,,1.193600e-05,-2.180000e+00,
,,,1.196800e-05,-2.180000e+00,
,,,1.200000e-05,-2.180000e+00,
,,,1.203200e-05,-2.180000e+00,
,,,1.206400e-05,-2.180000e+00,
,,,1.209600e-05,-2.180000e+00,
,,,1.212800e-05,-2.180000e+00,
,,,1.216000e-05,-2.180000e+00,
,,,1.219200e-05,-2.180000e+00,
,,,1.222400e-05,-2.180000e+00,
,,,1.225600e-05,-2.180000e+00,
,,,1.228800e-05,-2.180000e+00,
,,,1.232000e-05,-2.180000e+00,
,,,1.235200e-05,-2.180000e+00,
,,,1.238400e-05,-2.180000e+00,
,,,1.241600e-05,-2.180000e+00,
,,,1.244800e-05,-2.180000e+00,
,,,1.248000e-05,-2.180000e+00,
,,,1.251200e-05,-2.180000e+00,
,,,1.254400e-05,-2.180000e+00,
,,,1.257600e-05,-2.180000e+00,
,,,1.260800e-05,-2.180000e+00,
,,,1.264000e-05,-2.180000e+00,
,,,1.267200e-05,-2.180000e+00,
,,,1.270400e-05,-2.180000e+00,
,,,1.273600e-05,-2.180000e+00,
,,,1.276800e-05,-2.180000e+00,
,,,1.280000e-05,-2.180000e+00,
,,,1.283200e-05,-2.180000e+00,
,,,1.286400e-05,-2.180000e+00,
,,,1.289600e-05,-2.180000e+00,
,,,1.292800e-05,-2.180000e+00,
,,,1.296000e-05,-2.180000e+00,
,,,1.299200e-05,-2.180000e+00,
,,,1.302400e-05,-2.180000e+00,
,,,1.305600e-05,-2.180000e+00,
,,,1.308800e-05,-2.180000e+00,
,,,1.312000e-05,-2.180000e+00,
,,,1.315200e-05,-2.180000e+00,
,,,1.318400e-05,-2.180000e+00,
,,,1.321600e-05,-2.180000e+00,
,,,1.324800e-05,-2.180000e+00,
,,,1.328000e-05,-2.180000e+00,
,,,1.331200e-05,-2.180000e+00,
,,,1.334400e-05,-2.180000e+00,
,,,1.337600e-05,-2.180000e+00,
,,,1.340800e-05,-2.180000e+00,
,,,1.344000e-05,-2.180000e+00,
,,,1.347200e-05,-2.180000e+00,
,,,1.350400e-05,-2.180000e+00,
,,,1.353600e-05,-2.180000e+00,
,,,1.356800e-05,-2.180000e+00,
,,,1.360000e-05,-2.180000e+00,
,,,1.363200e-05,-2.180000e+00,
,,,1.366400e-05,-2.180000e+00,
,,,1.369600e-05,-2.180000e+00,
,,,1.372800e-05,-2.180000e+00,
,,,1.376000e-05,-2.180000e+00,
,,,1.379200e-05,-2.180000e+00,
,,,1.382400e-05,-2.180000e+00,
,,,1.385600e-05,-2.180000e+00,
,,,1.388800e-05,-2.180000e+00,
,,,1.392000e-05,-2.180000e+00,
,,,1.395200e-05,-2.180000e+00,
,,,1.398400e-05,-2.220000e+00,
,,,1.401600e-05,-2.180000e+00,
,,,1.404800e-05,-2.220000e+00,
,,,1.408000e-05,-2.220000e+00,
,,,1.411200e-05,-2.180000e+00,
,,,1.414400e-05,-2.180000e+00,
,,,1.417600e-05,-2.180000e+00,
,,,1.420800e-05,-2.180000e+00,
,,,1.424000e-05,-2.180000e+00,
,,,1.427200e-05,-2.180000e+00,
,,,1.430400e-05,-2.220000e+00,
,,,1.433600e-05,-2.220000e+00,
,,,1.436800e-05,-2.220000e+00,
,,,1.440000e-05,-2.180000e+00,
,,,1.443200e-05,-2.220000e+00,
,,,1.446400e-05,-2.220000e+00,
,,,1.449600e-05,-2.180000e+00,
,,,1.452800e-05,-2.220000e+00,
,,,1.456000e-05,-2.180000e+00,
,,,1.459200e-05,-2.220000e+00,
,,,1.462400e-05,-2.220000e+00,
,,,1.465600e-05,-2.220000e+00,
,,,1.468800e-05,-2.220000e+00,
,,,1.472000e-05,-2.180000e+00,
,,,1.475200e-05,-2.220000e+00,
,,,1.478400e-05,-2.220000e+00,
,,,1.481600e-05,-2.220000e+00,
,,,1.484800e-05,-2.220000e+00,
,,,1.488000e-05,-2.220000e+00,
,,,1.491200e-05,-2.220000e+00,
,,,1.494400e-05,-2.220000e+00,
,,,1.497600e-05,-2.220000e+00,
,,,1.500800e-05,-2.220000e+00,
,,,1.504000e-05,-2.220000e+00,
,,,1.507200e-05,-2.220000e+00,
,,,1.510400e-05,-2.220000e+00,
,,,1.513600e-05,-2.220000e+00,
,,,1.516800e-05,-2.220000e+00,
,,,1.520000e-05,-2.220000e+00,
,,,1.523200e-05,-2.220000e+00,
,,,1.526400e-05,-2.220000e+00,
,,,1.529600e-05,-2.220000e+00,
,,,1.532800e-05,-2.220000e+00,
,,,1.536000e-05,-2.220000e+00,
,,,1.539200e-05,-2.220000e+00,
,,,1.542400e-05,-2.220000e+00,
,,,1.545600e-05,-2.220000e+00,
,,,1.548800e-05,-2.220000e+00,
,,,1.552000e-05,-2.220000e+00,
,,,1.555200e-05,-2.220000e+00,
,,,1.558400e-05,-2.220000e+00,
,,,1.561600e-05,-2.220000e+00,
,,,1.564800e-05,-2.220000e+00,
,,,1.568000e-05,-2.220000e+00,
,,,1.571200e-05,-2.220000e+00,
,,,1.574400e-05,-2.220000e+00,
,,,1.577600e-05,-2.220000e+00,
,,,1.580800e-05,-2.220000e+00,
,,,1.584000e-05,-2.220000e+00,
,,,1.587200e-05,-2.220000e+00,
,,,1.590400e-05,-2.220000e+00,
,,,1.593600e-05,-2.220000e+00,
,,,1.596800e-05,-2.220000e+00,
,,,1.600000e-05,-2.220000e+00,
,,,1.603200e-05,-2.220000e+00,
,,,1.606400e-05,-2.220000e+00,
,,,1.609600e-05,-2.220000e+00,
,,,1.612800e-05,-2.220000e+00,
,,,1.616000e-05,-2.220000e+00,
,,,1.619200e-05,-2.220000e+00,
,,,1.622400e-05,-2.220000e+00,
,,,1.625600e-05,-2.220000e+00,
,,,1.628800e-05,-2.220000e+00,
,,,1.632000e-05,-2.220000e+00,
,,,1.635200e-05,-2.220000e+00,
,,,1.638400e-05,-2.220000e+00,
,,,1.641600e-05,-2.220000e+00,
,,,1.644800e-05,-2.220000e+00,
,,,1.648000e-05,-2.220000e+00,
,,,1.651200e-05,-2.220000e+00,
,,,1.654400e-05,-2.220000e+00,
,,,1.657600e-05,-2.220000e+00,
,,,1.660800e-05,-2.220000e+00,
,,,1.664000e-05,-2.220000e+00,
,,,1.667200e-05,-2.220000e+00,
,,,1.670400e-05,-2.220000e+00,
,,,1.673600e-05,-2.220000e+00,
,,,1.676800e-05,-2.220000e+00,
,,,1.680000e-05,-2.220000e+00,
,,,1.683200e-05,-2.220000e+00,
,,,1.686400e-05,-2.220000e+00,
,,,1.689600e-05,-2.220000e+00,
,,,1.692800e-05,-2.260000e+00,
,,,1.696000e-05,-2.220000e+00,
,,,1.699200e-05,-2.220000e+00,
,,,1.702400e-05,-2.220000e+00,
,,,1.705600e-05,-2.220000e+00,
,,,1.708800e-05,-2.220000e+00,
,,,1.712000e-05,-2.220000e+00,
,,,1.715200e-05,-2.220000e+00,
,,,1.718400e-05,-2.260000e+00,
,,,1.721600e-05,-2.220000e+00,
,,,1.724800e-05,-2.260000e+00,
,,,1.728000e-05,-2.220000e+00,
,,,1.731200e-05,-2.220000e+00,
,,,1.734400e-05,-2.220000e+00,
,,,1.737600e-05,-2.260000e+00,
,,,1.740800e-05,-2.260000e+00,
,,,1.744000e-05,-2.220000e+00,
,,,1.747200e-05,-2.220000e+00,
,,,1.750400e-05,-2.260000e+00,
,,,1.753600e-05,-2.260000e+00,
,,,1.756800e-05,-2.260000e+00,
,,,1.760000e-05,-2.260000e+00,
,,,1.763200e-05,-2.260000e+00,
,,,1.766400e-05,-2.260000e+00,
,,,1.769600e-05,-2.260000e+00,
,,,1.772800e-05,-2.260000e+00,
,,,1.776000e-05,-2.260000e+00,
,,,1.779200e-05,-2.260000e+00,
,,,1.782400e-05,-2.260000e+00,
,,,1.785600e-05,-2.260000e+00,
,,,1.788800e-05,-2.260000e+00,
,,,1.792000e-05,-2.260000e+00,
,,,1.795200e-05,-2.260000e+00,
,,,1.798400e-05,-2.260000e+00,
,,,1.801600e-05,-2.260000e+00,
,,,1.804800e-05,-2.260000e+00,
,,,1.808000e-05,-2.260000e+00,
,,,1.811200e-05,-2.260000e+00,
,,,1.814400e-05,-2.260000e+00,
,,,1.817600e-05,-2.260000e+00,
,,,1.820800e-05,-2.260000e+00,
,,,1.824000e-05,-2.260000e+00,
,,,1.827200e-05,-2.260000e+00,
,,,1.830400e-05,-2.260000e+00,
,,,1.833600e-05,-2.260000e+00,
,,,1.836800e-05,-2.260000e+00,
,,,1.840000e-05,-2.260000e+00,
,,,1.843200e-05,-2.260000e+00,
,,,1.846400e-05,-2.260000e+00,
,,,1.849600e-05,-2.260000e+00,
,,,1.852800e-05,-2.260000e+00,
,,,1.856000e-05,-2.260000e+00,
,,,1.859200e-05,-2.260000e+00,
,,,1.862400e-05,-2.260000e+00,
,,,1.865600e-05,-2.260000e+00,
,,,1.868800e-05,-2.260000e+00,
,,,1.872000e-05,-2.260000e+00,
,,,1.875200e-05,-2.260000e+00,
,,,1.878400e-05,-2.260000e+00,
,,,1.881600e-05,-2.260000e+00,
,,,1.884800e-05,-2.260000e+00,
,,,1.888000e-05,-2.260000e+00,
,,,1.891200e-05,-2.260000e+00,
,,,1.894400e-05,-2.260000e+00,
,,,1.897600e-05,-2.260000e+00,
,,,1.900800e-05,-2.260000e+00,
,,,1.904000e-05,-2.260000e+00,
,,,1.907200e-05,-2.260000e+00,
,,,1.910400e-05,-2.260000e+00,
,,,1.913600e-05,-2.260000e+00,
,,,1.916800e-05,-2.260000e+00,
,,,1.920000e-05,-2.260000e+00,
,,,1.923200e-05,-2.260000e+00,
,,,1.926400e-05,-2.260000e+00,
,,,1.929600e-05,-2.260000e+00,
,,,1.932800e-05,-2.260000e+00,
,,,1.936000e-05,-2.260000e+00,
,,,1.939200e-05,-2.260000e+00,
,,,1.942400e-05,-2.260000e+00,
,,,1.945600e-05,-2.260000e+00,
,,,1.948800e-05,-2.260000e+00,
,,,1.952000e-05,-2.260000e+00,
,,,1.955200e-05,-2.260000e+00,
,,,1.958400e-05,-2.260000e+00,
,,,1.961600e-05,-2.260000e+00,
,,,1.964800e-05,-2.260000e+00,
,,,1.968000e-05,-2.260000e+00,
,,,1.971200e-05,-2.260000e+00,
,,,1.974400e-05,-2.300000e+00,
,,,1.977600e-05,-2.300000e+00,
,,,1.980800e-05,-2.260000e+00,
,,,1.984000e-05,-2.260000e+00,
,,,1.987200e-05,-2.260000e+00,
,,,1.990400e-05,-2.300000e+00,
,,,1.993600e-05,-2.260000e+00,
,,,1.996800e-05,-2.300000e+00,
,,,2.000000e-05,-2.260000e+00,
,,,2.003200e-05,-2.260000e+00,
,,,2.006400e-05,-2.260000e+00,
,,,2.009600e-05,-2.300000e+00,
,,,2.012800e-05,-2.300000e+00,
,,,2.016000e-05,-2.300000e+00,
,,,2.019200e-05,-2.300000e+00,
,,,2.022400e-05,-2.260000e+00,
,,,2.025600e-05,-2.300000e+00,
,,,2.028800e-05,-2.300000e+00,
