Experiment01/data/data3.csv

ProID,Info,,time,Vol.,
GenTime,2015-10-01 20:13,,0.000000e+00,-1.080000e+00,
FileName,data3.csv,,8.000000e-09,-1.160000e+00,
Record Length,35000.000000 Points,,1.600000e-08,-1.160000e+00,
Sample Interval,8.000000e-09 s,,2.400000e-08,-1.160000e+00,
Trigger Time,-5.200000e-06 S,,3.200000e-08,-1.080000e+00,
Source,CH2,,4.000000e-08,-1.160000e+00,
Vertical Units,V/grid,,4.800000e-08,-1.160000e+00,
Vertical Scale,2.000000e+00,,5.600000e-08,-1.160000e+00,
Vertical Offset,-9.700000e+01,,6.400000e-08,-1.080000e+00,
Horizontal Units,s/grid,,7.200000e-08,-1.160000e+00,
Horizontal Scale,2.000000e-05,,8.000000e-08,-1.080000e+00,
Probe Atten,1.000000e+01,,8.800000e-08,-1.080000e+00,
,,,9.600000e-08,-1.160000e+00,
,,,1.040000e-07,-1.160000e+00,
,,,1.120000e-07,-1.160000e+00,
,,,1.200000e-07,-1.160000e+00,
,,,1.280000e-07,-1.080000e+00,
,,,1.360000e-07,-1.160000e+00,
,,,1.440000e-07,-1.160000e+00,
,,,1.520000e-07,-1.160000e+00,
,,,1.600000e-07,-1.160000e+00,
,,,1.680000e-07,-1.160000e+00,
,,,1.760000e-07,-1.160000e+00,
,,,1.840000e-07,-1.160000e+00,
,,,1.920000e-07,-1.160000e+00,
,,,2.000000e-07,-1.160000e+00,
,,,2.080000e-07,-1.160000e+00,
,,,2.160000e-07,-1.160000e+00,
,,,2.240000e-07,-1.160000e+00,
,,,2.320000e-07,-1.160000e+00,
,,,2.400000e-07,-1.160000e+00,
,,,2.480000e-07,-1.160000e+00,
,,,2.560000e-07,-1.160000e+00,
,,,2.640000e-07,-1.160000e+00,
,,,2.720000e-07,-1.160000e+00,
,,,2.800000e-07,-1.160000e+00,
,,,2.880000e-07,-1.160000e+00,
,,,2.960000e-07,-1.160000e+00,
,,,3.040000e-07,-1.160000e+00,
,,,3.120000e-07,-1.160000e+00,
,,,3.200000e-07,-1.160000e+00,
,,,3.280000e-07,-1.160000e+00,
,,,3.360000e-07,-1.160000e+00,
,,,3.440000e-07,-1.160000e+00,
,,,3.520000e-07,-1.160000e+00,
,,,3.600000e-07,-1.160000e+00,
,,,3.680000e-07,-1.160000e+00,
,,,3.760000e-07,-1.160000e+00,
,,,3.840000e-07,-1.160000e+00,
,,,3.920000e-07,-1.160000e+00,
,,,4.000000e-07,-1.160000e+00,
,,,4.080000e-07,-1.160000e+00,
,,,4.160000e-07,-1.160000e+00,
,,,4.240000e-07,-1.160000e+00,
,,,4.320000e-07,-1.160000e+00,
,,,4.400000e-07,-1.160000e+00,
,,,4.480000e-07,-1.160000e+00,
,,,4.560000e-07,-1.160000e+00,
,,,4.640000e-07,-1.160000e+00,
,,,4.720000e-07,-1.160000e+00,
,,,4.800000e-07,-1.160000e+00,
,,,4.880000e-07,-1.160000e+00,
,,,4.960000e-07,-1.160000e+00,
,,,5.040000e-07,-1.160000e+00,
,,,5.120000e-07,-1.160000e+00,
,,,5.200000e-07,-1.160000e+00,
,,,5.280000e-07,-1.160000e+00,
,,,5.360000e-07,-1.160000e+00,
,,,5.440000e-07,-1.160000e+00,
,,,5.520000e-07,-1.160000e+00,
,,,5.600000e-07,-1.160000e+00,
,,,5.680000e-07,-1.160000e+00,
,,,5.760000e-07,-1.160000e+00,
,,,5.840000e-07,-1.160000e+00,
,,,5.920000e-07,-1.160000e+00,
,,,6.000000e-07,-1.160000e+00,
,,,6.080000e-07,-1.160000e+00,
,,,6.160000e-07,-1.160000e+00,
,,,6.240000e-07,-1.160000e+00,
,,,6.320000e-07,-1.160000e+00,
,,,6.400000e-07,-1.160000e+00,
,,,6.480000e-07,-1.160000e+00,
,,,6.560000e-07,-1.280000e+00,
,,,6.640000e-07,-1.160000e+00,
,,,6.720000e-07,-1.160000e+00,
,,,6.800000e-07,-1.160000e+00,
,,,6.880000e-07,-1.160000e+00,
,,,6.960000e-07,-1.160000e+00,
,,,7.040000e-07,-1.280000e+00,
,,,7.120000e-07,-1.160000e+00,
,,,7.200000e-07,-1.160000e+00,
,,,7.280000e-07,-1.160000e+00,
,,,7.360000e-07,-1.280000e+00,
,,,7.440000e-07,-1.280000e+00,
,,,7.520000e-07,-1.160000e+00,
,,,7.600000e-07,-1.160000e+00,
,,,7.680000e-07,-1.160000e+00,
,,,7.760000e-07,-1.160000e+00,
,,,7.840000e-07,-1.280000e+00,
,,,7.920000e-07,-1.280000e+00,
,,,8.000000e-07,-1.280000e+00,
,,,8.080000e-07,-1.280000e+00,
,,,8.160000e-07,-1.280000e+00,
,,,8.240000e-07,-1.280000e+00,
,,,8.320000e-07,-1.280000e+00,
,,,8.400000e-07,-1.280000e+00,
,,,8.480000e-07,-1.160000e+00,
,,,8.560000e-07,-1.280000e+00,
,,,8.640000e-07,-1.280000e+00,
,,,8.720000e-07,-1.280000e+00,
,,,8.800000e-07,-1.280000e+00,
,,,8.880000e-07,-1.280000e+00,
,,,8.960000e-07,-1.160000e+00,
,,,9.040000e-07,-1.280000e+00,
,,,9.120000e-07,-1.280000e+00,
,,,9.200000e-07,-1.280000e+00,
,,,9.280000e-07,-1.280000e+00,
,,,9.360000e-07,-1.160000e+00,
,,,9.440000e-07,-1.280000e+00,
,,,9.520000e-07,-1.280000e+00,
,,,9.600000e-07,-1.280000e+00,
,,,9.680000e-07,-1.280000e+00,
,,,9.760000e-07,-1.280000e+00,
,,,9.840000e-07,-1.280000e+00,
,,,9.920000e-07,-1.280000e+00,
,,,1.000000e-06,-1.280000e+00,
,,,1.008000e-06,-1.280000e+00,
,,,1.016000e-06,-1.280000e+00,
,,,1.024000e-06,-1.280000e+00,
,,,1.032000e-06,-1.280000e+00,
,,,1.040000e-06,-1.280000e+00,
,,,1.048000e-06,-1.280000e+00,
,,,1.056000e-06,-1.280000e+00,
,,,1.064000e-06,-1.280000e+00,
,,,1.072000e-06,-1.280000e+00,
,,,1.080000e-06,-1.280000e+00,
,,,1.088000e-06,-1.280000e+00,
,,,1.096000e-06,-1.280000e+00,
,,,1.104000e-06,-1.280000e+00,
,,,1.112000e-06,-1.280000e+00,
,,,1.120000e-06,-1.280000e+00,
,,,1.128000e-06,-1.280000e+00,
,,,1.136000e-06,-1.280000e+00,
,,,1.144000e-06,-1.280000e+00,
,,,1.152000e-06,-1.280000e+00,
,,,1.160000e-06,-1.280000e+00,
,,,1.168000e-06,-1.280000e+00,
,,,1.176000e-06,-1.280000e+00,
,,,1.184000e-06,-1.280000e+00,
,,,1.192000e-06,-1.280000e+00,
,,,1.200000e-06,-1.280000e+00,
,,,1.208000e-06,-1.280000e+00,
,,,1.216000e-06,-1.360000e+00,
,,,1.224000e-06,-1.280000e+00,
,,,1.232000e-06,-1.280000e+00,
,,,1.240000e-06,-1.280000e+00,
,,,1.248000e-06,-1.280000e+00,
,,,1.256000e-06,-1.280000e+00,
,,,1.264000e-06,-1.280000e+00,
,,,1.272000e-06,-1.280000e+00,
,,,1.280000e-06,-1.280000e+00,
,,,1.288000e-06,-1.280000e+00,
,,,1.296000e-06,-1.280000e+00,
,,,1.304000e-06,-1.280000e+00,
,,,1.312000e-06,-1.280000e+00,
,,,1.320000e-06,-1.280000e+00,
,,,1.328000e-06,-1.280000e+00,
,,,1.336000e-06,-1.280000e+00,
,,,1.344000e-06,-1.280000e+00,
,,,1.352000e-06,-1.280000e+00,
,,,1.360000e-06,-1.280000e+00,
,,,1.368000e-06,-1.280000e+00,
,,,1.376000e-06,-1.280000e+00,
,,,1.384000e-06,-1.280000e+00,
,,,1.392000e-06,-1.280000e+00,
,,,1.400000e-06,-1.280000e+00,
,,,1.408000e-06,-1.280000e+00,
,,,1.416000e-06,-1.280000e+00,
,,,1.424000e-06,-1.360000e+00,
,,,1.432000e-06,-1.360000e+00,
,,,1.440000e-06,-1.360000e+00,
,,,1.448000e-06,-1.360000e+00,
,,,1.456000e-06,-1.360000e+00,
,,,1.464000e-06,-1.360000e+00,
,,,1.472000e-06,-1.360000e+00,
,,,1.480000e-06,-1.360000e+00,
,,,1.488000e-06,-1.360000e+00,
,,,1.496000e-06,-1.360000e+00,
,,,1.504000e-06,-1.280000e+00,
,,,1.512000e-06,-1.280000e+00,
,,,1.520000e-06,-1.280000e+00,
,,,1.528000e-06,-1.280000e+00,
,,,1.536000e-06,-1.280000e+00,
,,,1.544000e-06,-1.280000e+00,
,,,1.552000e-06,-1.280000e+00,
,,,1.560000e-06,-1.280000e+00,
,,,1.568000e-06,-1.280000e+00,
,,,1.576000e-06,-1.360000e+00,
,,,1.584000e-06,-1.280000e+00,
,,,1.592000e-06,-1.280000e+00,
,,,1.600000e-06,-1.360000e+00,
,,,1.608000e-06,-1.360000e+00,
,,,1.616000e-06,-1.360000e+00,
,,,1.624000e-06,-1.360000e+00,
,,,1.632000e-06,-1.360000e+00,
,,,1.640000e-06,-1.360000e+00,
,,,1.648000e-06,-1.360000e+00,
,,,1.656000e-06,-1.360000e+00,
,,,1.664000e-06,-1.360000e+00,
,,,1.672000e-06,-1.360000e+00,
,,,1.680000e-06,-1.360000e+00,
,,,1.688000e-06,-1.280000e+00,
,,,1.696000e-06,-1.360000e+00,
,,,1.704000e-06,-1.360000e+00,
,,,1.712000e-06,-1.280000e+00,
,,,1.720000e-06,-1.280000e+00,
,,,1.728000e-06,-1.280000e+00,
,,,1.736000e-06,-1.360000e+00,
,,,1.744000e-06,-1.280000e+00,
,,,1.752000e-06,-1.280000e+00,
,,,1.760000e-06,-1.280000e+00,
,,,1.768000e-06,-1.360000e+00,
,,,1.776000e-06,-1.360000e+00,
,,,1.784000e-06,-1.360000e+00,
,,,1.792000e-06,-1.360000e+00,
,,,1.800000e-06,-1.360000e+00,
,,,1.808000e-06,-1.360000e+00,
,,,1.816000e-06,-1.360000e+00,
,,,1.824000e-06,-1.360000e+00,
,,,1.832000e-06,-1.360000e+00,
,,,1.840000e-06,-1.360000e+00,
,,,1.848000e-06,-1.360000e+00,
,,,1.856000e-06,-1.360000e+00,
,,,1.864000e-06,-1.360000e+00,
,,,1.872000e-06,-1.360000e+00,
,,,1.880000e-06,-1.360000e+00,
,,,1.888000e-06,-1.360000e+00,
,,,1.896000e-06,-1.280000e+00,
,,,1.904000e-06,-1.360000e+00,
,,,1.912000e-06,-1.360000e+00,
,,,1.920000e-06,-1.360000e+00,
,,,1.928000e-06,-1.360000e+00,
,,,1.936000e-06,-1.360000e+00,
,,,1.944000e-06,-1.360000e+00,
,,,1.952000e-06,-1.360000e+00,
,,,1.960000e-06,-1.360000e+00,
,,,1.968000e-06,-1.360000e+00,
,,,1.976000e-06,-1.360000e+00,
,,,1.984000e-06,-1.360000e+00,
,,,1.992000e-06,-1.440000e+00,
,,,2.000000e-06,-1.440000e+00,
,,,2.008000e-06,-1.360000e+00,
,,,2.016000e-06,-1.360000e+00,
,,,2.024000e-06,-1.360000e+00,
,,,2.032000e-06,-1.360000e+00,
,,,2.040000e-06,-1.360000e+00,
,,,2.048000e-06,-1.360000e+00,
,,,2.056000e-06,-1.360000e+00,
,,,2.064000e-06,-1.360000e+00,
,,,2.072000e-06,-1.360000e+00,
,,,2.080000e-06,-1.360000e+00,
,,,2.088000e-06,-1.360000e+00,
,,,2.096000e-06,-1.360000e+00,
,,,2.104000e-06,-1.360000e+00,
,,,2.112000e-06,-1.360000e+00,
,,,2.120000e-06,-1.360000e+00,
,,,2.128000e-06,-1.360000e+00,
,,,2.136000e-06,-1.360000e+00,
,,,2.144000e-06,-1.360000e+00,
,,,2.152000e-06,-1.360000e+00,
,,,2.160000e-06,-1.360000e+00,
,,,2.168000e-06,-1.360000e+00,
,,,2.176000e-06,-1.440000e+00,
,,,2.184000e-06,-1.440000e+00,
,,,2.192000e-06,-1.440000e+00,
,,,2.200000e-06,-1.360000e+00,
,,,2.208000e-06,-1.360000e+00,
,,,2.216000e-06,-1.360000e+00,
,,,2.224000e-06,-1.360000e+00,
,,,2.232000e-06,-1.360000e+00,
,,,2.240000e-06,-1.360000e+00,
,,,2.248000e-06,-1.360000e+00,
,,,2.256000e-06,-1.360000e+00,
,,,2.264000e-06,-1.360000e+00,
,,,2.272000e-06,-1.360000e+00,
,,,2.280000e-06,-1.360000e+00,
,,,2.288000e-06,-1.360000e+00,
,,,2.296000e-06,-1.440000e+00,
,,,2.304000e-06,-1.440000e+00,
,,,2.312000e-06,-1.360000e+00,
,,,2.320000e-06,-1.360000e+00,
,,,2.328000e-06,-1.360000e+00,
,,,2.336000e-06,-1.440000e+00,
,,,2.344000e-06,-1.440000e+00,
,,,2.352000e-06,-1.440000e+00,
,,,2.360000e-06,-1.440000e+00,
,,,2.368000e-06,-1.440000e+00,
,,,2.376000e-06,-1.360000e+00,
,,,2.384000e-06,-1.360000e+00,
,,,2.392000e-06,-1.440000e+00,
,,,2.400000e-06,-1.440000e+00,
,,,2.408000e-06,-1.360000e+00,
,,,2.416000e-06,-1.360000e+00,
,,,2.424000e-06,-1.360000e+00,
,,,2.432000e-06,-1.440000e+00,
,,,2.440000e-06,-1.440000e+00,
,,,2.448000e-06,-1.360000e+00,
,,,2.456000e-06,-1.360000e+00,
,,,2.464000e-06,-1.440000e+00,
,,,2.472000e-06,-1.440000e+00,
,,,2.480000e-06,-1.440000e+00,
,,,2.488000e-06,-1.440000e+00,
,,,2.496000e-06,-1.440000e+00,
,,,2.504000e-06,-1.440000e+00,
,,,2.512000e-06,-1.440000e+00,
,,,2.520000e-06,-1.440000e+00,
,,,2.528000e-06,-1.440000e+00,
,,,2.536000e-06,-1.440000e+00,
,,,2.544000e-06,-1.440000e+00,
,,,2.552000e-06,-1.360000e+00,
,,,2.560000e-06,-1.440000e+00,
,,,2.568000e-06,-1.440000e+00,
,,,2.576000e-06,-1.440000e+00,
,,,2.584000e-06,-1.440000e+00,
,,,2.592000e-06,-1.440000e+00,
,,,2.600000e-06,-1.440000e+00,
,,,2.608000e-06,-1.440000e+00,
,,,2.616000e-06,-1.440000e+00,
,,,2.624000e-06,-1.440000e+00,
,,,2.632000e-06,-1.440000e+00,
,,,2.640000e-06,-1.440000e+00,
,,,2.648000e-06,-1.440000e+00,
,,,2.656000e-06,-1.440000e+00,
,,,2.664000e-06,-1.440000e+00,
,,,2.672000e-06,-1.440000e+00,
,,,2.680000e-06,-1.440000e+00,
,,,2.688000e-06,-1.440000e+00,
,,,2.696000e-06,-1.440000e+00,
,,,2.704000e-06,-1.440000e+00,
,,,2.712000e-06,-1.440000e+00,
,,,2.720000e-06,-1.440000e+00,
,,,2.728000e-06,-1.440000e+00,
,,,2.736000e-06,-1.440000e+00,
,,,2.744000e-06,-1.440000e+00,
,,,2.752000e-06,-1.440000e+00,
,,,2.760000e-06,-1.440000e+00,
,,,2.768000e-06,-1.440000e+00,
,,,2.776000e-06,-1.440000e+00,
,,,2.784000e-06,-1.440000e+00,
,,,2.792000e-06,-1.440000e+00,
,,,2.800000e-06,-1.440000e+00,
,,,2.808000e-06,-1.440000e+00,
,,,2.816000e-06,-1.440000e+00,
,,,2.824000e-06,-1.520000e+00,
,,,2.832000e-06,-1.440000e+00,
,,,2.840000e-06,-1.440000e+00,
,,,2.848000e-06,-1.440000e+00,
,,,2.856000e-06,-1.440000e+00,
,,,2.864000e-06,-1.440000e+00,
,,,2.872000e-06,-1.440000e+00,
,,,2.880000e-06,-1.440000e+00,
,,,2.888000e-06,-1.440000e+00,
,,,2.896000e-06,-1.440000e+00,
,,,2.904000e-06,-1.440000e+00,
,,,2.912000e-06,-1.440000e+00,
,,,2.920000e-06,-1.440000e+00,
,,,2.928000e-06,-1.440000e+00,
,,,2.936000e-06,-1.440000e+00,
,,,2.944000e-06,-1.440000e+00,
,,,2.952000e-06,-1.440000e+00,
,,,2.960000e-06,-1.440000e+00,
,,,2.968000e-06,-1.440000e+00,
,,,2.976000e-06,-1.440000e+00,
,,,2.984000e-06,-1.440000e+00,
,,,2.992000e-06,-1.440000e+00,
,,,3.000000e-06,-1.440000e+00,
,,,3.008000e-06,-1.440000e+00,
,,,3.016000e-06,-1.440000e+00,
,,,3.024000e-06,-1.440000e+00,
,,,3.032000e-06,-1.440000e+00,
,,,3.040000e-06,-1.440000e+00,
,,,3.048000e-06,-1.520000e+00,
,,,3.056000e-06,-1.440000e+00,
,,,3.064000e-06,-1.440000e+00,
,,,3.072000e-06,-1.440000e+00,
,,,3.080000e-06,-1.440000e+00,
,,,3.088000e-06,-1.440000e+00,
,,,3.096000e-06,-1.440000e+00,
,,,3.104000e-06,-1.440000e+00,
,,,3.112000e-06,-1.440000e+00,
,,,3.120000e-06,-1.440000e+00,
,,,3.128000e-06,-1.440000e+00,
,,,3.136000e-06,-1.440000e+00,
,,,3.144000e-06,-1.520000e+00,
,,,3.152000e-06,-1.440000e+00,
,,,3.160000e-06,-1.440000e+00,
,,,3.168000e-06,-1.520000e+00,
,,,3.176000e-06,-1.520000e+00,
,,,3.184000e-06,-1.440000e+00,
,,,3.192000e-06,-1.440000e+00,
,,,3.200000e-06,-1.520000e+00,
,,,3.208000e-06,-1.520000e+00,
,,,3.216000e-06,-1.520000e+00,
,,,3.224000e-06,-1.520000e+00,
,,,3.232000e-06,-1.520000e+00,
,,,3.240000e-06,-1.640000e+00,
,,,3.248000e-06,-1.520000e+00,
,,,3.256000e-06,-1.520000e+00,
,,,3.264000e-06,-1.520000e+00,
,,,3.272000e-06,-1.520000e+00,
,,,3.280000e-06,-1.440000e+00,
,,,3.288000e-06,-1.440000e+00,
,,,3.296000e-06,-1.440000e+00,
,,,3.304000e-06,-1.440000e+00,
,,,3.312000e-06,-1.440000e+00,
,,,3.320000e-06,-1.440000e+00,
,,,3.328000e-06,-1.440000e+00,
,,,3.336000e-06,-1.520000e+00,
,,,3.344000e-06,-1.520000e+00,
,,,3.352000e-06,-1.520000e+00,
,,,3.360000e-06,-1.520000e+00,
,,,3.368000e-06,-1.520000e+00,
,,,3.376000e-06,-1.520000e+00,
,,,3.384000e-06,-1.520000e+00,
,,,3.392000e-06,-1.640000e+00,
,,,3.400000e-06,-1.520000e+00,
,,,3.408000e-06,-1.520000e+00,
,,,3.416000e-06,-1.520000e+00,
,,,3.424000e-06,-1.520000e+00,
,,,3.432000e-06,-1.520000e+00,
,,,3.440000e-06,-1.440000e+00,
,,,3.448000e-06,-1.440000e+00,
,,,3.456000e-06,-1.440000e+00,
,,,3.464000e-06,-1.440000e+00,
,,,3.472000e-06,-1.440000e+00,
,,,3.480000e-06,-1.440000e+00,
,,,3.488000e-06,-1.440000e+00,
,,,3.496000e-06,-1.440000e+00,
,,,3.504000e-06,-1.440000e+00,
,,,3.512000e-06,-1.520000e+00,
,,,3.520000e-06,-1.520000e+00,
,,,3.528000e-06,-1.520000e+00,
,,,3.536000e-06,-1.520000e+00,
,,,3.544000e-06,-1.640000e+00,
,,,3.552000e-06,-1.520000e+00,
,,,3.560000e-06,-1.520000e+00,
,,,3.568000e-06,-1.520000e+00,
,,,3.576000e-06,-1.520000e+00,
,,,3.584000e-06,-1.520000e+00,
,,,3.592000e-06,-1.520000e+00,
,,,3.600000e-06,-1.520000e+00,
,,,3.608000e-06,-1.520000e+00,
,,,3.616000e-06,-1.520000e+00,
,,,3.624000e-06,-1.440000e+00,
,,,3.632000e-06,-1.520000e+00,
,,,3.640000e-06,-1.520000e+00,
,,,3.648000e-06,-1.520000e+00,
,,,3.656000e-06,-1.520000e+00,
,,,3.664000e-06,-1.520000e+00,
,,,3.672000e-06,-1.520000e+00,
,,,3.680000e-06,-1.520000e+00,
,,,3.688000e-06,-1.520000e+00,
,,,3.696000e-06,-1.520000e+00,
,,,3.704000e-06,-1.520000e+00,
,,,3.712000e-06,-1.520000e+00,
,,,3.720000e-06,-1.520000e+00,
,,,3.728000e-06,-1.520000e+00,
,,,3.736000e-06,-1.520000e+00,
,,,3.744000e-06,-1.520000e+00,
,,,3.752000e-06,-1.520000e+00,
,,,3.760000e-06,-1.520000e+00,
,,,3.768000e-06,-1.520000e+00,
,,,3.776000e-06,-1.520000e+00,
,,,3.784000e-06,-1.520000e+00,
,,,3.792000e-06,-1.520000e+00,
,,,3.800000e-06,-1.520000e+00,
,,,3.808000e-06,-1.520000e+00,
,,,3.816000e-06,-1.520000e+00,
,,,3.824000e-06,-1.520000e+00,
,,,3.832000e-06,-1.520000e+00,
,,,3.840000e-06,-1.520000e+00,
,,,3.848000e-06,-1.520000e+00,
,,,3.856000e-06,-1.520000e+00,
,,,3.864000e-06,-1.520000e+00,
,,,3.872000e-06,-1.640000e+00,
,,,3.880000e-06,-1.520000e+00,
,,,3.888000e-06,-1.520000e+00,
,,,3.896000e-06,-1.520000e+00,
,,,3.904000e-06,-1.520000e+00,
,,,3.912000e-06,-1.520000e+00,
,,,3.920000e-06,-1.640000e+00,
,,,3.928000e-06,-1.520000e+00,
,,,3.936000e-06,-1.520000e+00,
,,,3.944000e-06,-1.520000e+00,
,,,3.952000e-06,-1.520000e+00,
,,,3.960000e-06,-1.520000e+00,
,,,3.968000e-06,-1.520000e+00,
,,,3.976000e-06,-1.520000e+00,
,,,3.984000e-06,-1.520000e+00,
,,,3.992000e-06,-1.520000e+00,
,,,4.000000e-06,-1.520000e+00,
,,,4.008000e-06,-1.520000e+00,
,,,4.016000e-06,-1.520000e+00,
,,,4.024000e-06,-1.640000e+00,
,,,4.032000e-06,-1.640000e+00,
,,,4.040000e-06,-1.520000e+00,
,,,4.048000e-06,-1.640000e+00,
,,,4.056000e-06,-1.520000e+00,
,,,4.064000e-06,-1.520000e+00,
,,,4.072000e-06,-1.640000e+00,
,,,4.080000e-06,-1.640000e+00,
,,,4.088000e-06,-1.640000e+00,
,,,4.096000e-06,-1.640000e+00,
,,,4.104000e-06,-1.520000e+00,
,,,4.112000e-06,-1.520000e+00,
,,,4.120000e-06,-1.520000e+00,
,,,4.128000e-06,-1.640000e+00,
,,,4.136000e-06,-1.520000e+00,
,,,4.144000e-06,-1.520000e+00,
,,,4.152000e-06,-1.520000e+00,
,,,4.160000e-06,-1.640000e+00,
,,,4.168000e-06,-1.520000e+00,
,,,4.176000e-06,-1.520000e+00,
,,,4.184000e-06,-1.640000e+00,
,,,4.192000e-06,-1.520000e+00,
,,,4.200000e-06,-1.640000e+00,
,,,4.208000e-06,-1.640000e+00,
,,,4.216000e-06,-1.640000e+00,
,,,4.224000e-06,-1.640000e+00,
,,,4.232000e-06,-1.640000e+00,
,,,4.240000e-06,-1.640000e+00,
,,,4.248000e-06,-1.640000e+00,
,,,4.256000e-06,-1.640000e+00,
,,,4.264000e-06,-1.640000e+00,
,,,4.272000e-06,-1.520000e+00,
,,,4.280000e-06,-1.520000e+00,
,,,4.288000e-06,-1.640000e+00,
,,,4.296000e-06,-1.640000e+00,
,,,4.304000e-06,-1.520000e+00,
,,,4.312000e-06,-1.520000e+00,
,,,4.320000e-06,-1.520000e+00,
,,,4.328000e-06,-1.640000e+00,
,,,4.336000e-06,-1.520000e+00,
,,,4.344000e-06,-1.640000e+00,
,,,4.352000e-06,-1.640000e+00,
,,,4.360000e-06,-1.640000e+00,
,,,4.368000e-06,-1.640000e+00,
,,,4.376000e-06,-1.640000e+00,
,,,4.384000e-06,-1.640000e+00,
,,,4.392000e-06,-1.640000e+00,
,,,4.400000e-06,-1.640000e+00,
,,,4.408000e-06,-1.640000e+00,
,,,4.416000e-06,-1.640000e+00,
,,,4.424000e-06,-1.640000e+00,
,,,4.432000e-06,-1.640000e+00,
,,,4.440000e-06,-1.640000e+00,
,,,4.448000e-06,-1.640000e+00,
,,,4.456000e-06,-1.640000e+00,
,,,4.464000e-06,-1.640000e+00,
,,,4.472000e-06,-1.640000e+00,
,,,4.480000e-06,-1.640000e+00,
,,,4.488000e-06,-1.640000e+00,
,,,4.496000e-06,-1.520000e+00,
,,,4.504000e-06,-1.640000e+00,
,,,4.512000e-06,-1.640000e+00,
,,,4.520000e-06,-1.640000e+00,
,,,4.528000e-06,-1.640000e+00,
,,,4.536000e-06,-1.640000e+00,
,,,4.544000e-06,-1.640000e+00,
,,,4.552000e-06,-1.640000e+00,
,,,4.560000e-06,-1.640000e+00,
,,,4.568000e-06,-1.640000e+00,
,,,4.576000e-06,-1.640000e+00,
,,,4.584000e-06,-1.640000e+00,
,,,4.592000e-06,-1.640000e+00,
,,,4.600000e-06,-1.640000e+00,
,,,4.608000e-06,-1.640000e+00,
,,,4.616000e-06,-1.640000e+00,
,,,4.624000e-06,-1.640000e+00,
,,,4.632000e-06,-1.640000e+00,
,,,4.640000e-06,-1.640000e+00,
,,,4.648000e-06,-1.720000e+00,
,,,4.656000e-06,-1.640000e+00,
,,,4.664000e-06,-1.640000e+00,
,,,4.672000e-06,-1.640000e+00,
,,,4.680000e-06,-1.640000e+00,
,,,4.688000e-06,-1.640000e+00,
,,,4.696000e-06,-1.640000e+00,
,,,4.704000e-06,-1.640000e+00,
,,,4.712000e-06,-1.640000e+00,
,,,4.720000e-06,-1.640000e+00,
,,,4.728000e-06,-1.640000e+00,
,,,4.736000e-06,-1.640000e+00,
,,,4.744000e-06,-1.640000e+00,
,,,4.752000e-06,-1.640000e+00,
,,,4.760000e-06,-1.640000e+00,
,,,4.768000e-06,-1.640000e+00,
,,,4.776000e-06,-1.640000e+00,
,,,4.784000e-06,-1.640000e+00,
,,,4.792000e-06,-1.640000e+00,
,,,4.800000e-06,-1.640000e+00,
,,,4.808000e-06,-1.640000e+00,
,,,4.816000e-06,-1.640000e+00,
,,,4.824000e-06,-1.640000e+00,
,,,4.832000e-06,-1.640000e+00,
,,,4.840000e-06,-1.640000e+00,
,,,4.848000e-06,-1.640000e+00,
,,,4.856000e-06,-1.720000e+00,
,,,4.864000e-06,-1.640000e+00,
,,,4.872000e-06,-1.640000e+00,
,,,4.880000e-06,-1.640000e+00,
,,,4.888000e-06,-1.640000e+00,
,,,4.896000e-06,-1.640000e+00,
,,,4.904000e-06,-1.640000e+00,
,,,4.912000e-06,-1.640000e+00,
,,,4.920000e-06,-1.640000e+00,
,,,4.928000e-06,-1.640000e+00,
,,,4.936000e-06,-1.640000e+00,
,,,4.944000e-06,-1.640000e+00,
,,,4.952000e-06,-1.640000e+00,
,,,4.960000e-06,-1.720000e+00,
,,,4.968000e-06,-1.640000e+00,
,,,4.976000e-06,-1.640000e+00,
,,,4.984000e-06,-1.720000e+00,
,,,4.992000e-06,-1.720000e+00,
,,,5.000000e-06,-1.640000e+00,
,,,5.008000e-06,-1.720000e+00,
,,,5.016000e-06,-1.640000e+00,
,,,5.024000e-06,-1.640000e+00,
,,,5.032000e-06,-1.720000e+00,
,,,5.040000e-06,-1.640000e+00,
,,,5.048000e-06,-1.640000e+00,
,,,5.056000e-06,-1.640000e+00,
,,,5.064000e-06,-1.720000e+00,
,,,5.072000e-06,-1.640000e+00,
